%YAML 1.1
%TAG !u! tag:unity3d.com,2011:
--- !u!1045 &1
EditorBuildSettings:
  m_ObjectHideFlags: 0
  serializedVersion: 2
  m_Scenes:
  - enabled: 1
    path: Assets/0_Game/Sence/Game.unity
    guid: 04483acbe66f14242932a2cd36db0b00
  m_configObjects: {}
